module bitbucket.org/innius-deprecated/go-sqs-poller/v3

require (
	github.com/aws/aws-sdk-go v1.6.18
	github.com/go-ini/ini v1.24.0 // indirect
	github.com/gopherjs/gopherjs v0.0.0-20181103185306-d547d1d9531e // indirect
	github.com/jmespath/go-jmespath v0.0.0-20160803190731-bd40a432e4c7 // indirect
	github.com/jtolds/gls v4.2.1+incompatible // indirect
	github.com/smartystreets/assertions v0.0.0-20180927180507-b2de0cb4f26d // indirect
	github.com/smartystreets/goconvey v0.0.0-20181108003508-044398e4856c // indirect
	github.com/stretchr/objx v0.2.0 // indirect
	github.com/stretchr/testify v1.3.0
)

go 1.13
